蓝色： #1552bd
紫色： #533669

按钮：

    background-color: #1552bd;
    color: #fff;
    line-height: 30px;
    /* padding: 3px 5px; */
    display: inline-block;
    width: 100px;
    text-align: center;
    margin: 0px 10px;
    height: 33px;